"Variable";"Valor";"MediaBaja";"MediaNoBaja"
"Facturacion.Total";"98.19";"24628.7126315789";"9776.38951724138"
"Total.Tickets";"52.07";"21.1304347826087";"25.73"
"Tickets.Abiertos";"10.48";"1";"1.07"
"Tickets.Tecnicos";"99.61";"0.173913043478261";"1.14"
"Tickets.Funcionales";"96.94";"0.173913043478261";"0.8"
"Tiempo.medio.resolucion";"84.28";"10.0386956521739";"13.315612244898"
"Tiempo.medio.abiertos";"40.56";"65.6175";"77.8787804878049"
"Tickets.ultimo.mes";"32.51";"1.8695652173913";"2.15"
"Tickets.abiertos.ultimo.mes";"26.69";"0.391304347826087";"0.47"
"Tiempo.medio.resolucion.ultimo.mes";"1.81";"3.61166666666667";"3.58068181818182"
"Tiempo.medio.abiertos.ultimo.mes";"45.05";"15.3";"12.405"
"NumEncuestas";"49.23";"5.1";"7.54347826086957"
"PuntMedA";"60.28";"7.34375";"8.48056574598592"
"PuntMedB";"60.28";"7.34375";"8.48181325534812"
"PuntMedC";"77.46";"6.46354166666667";"8.04322205629524"
"NumeroTotalLlamadasEntran";"51.43";"2.75";"1.44286099549061"
"TMedioConversacion";"0";"NaN";"NaN"
"MediaDuracionEspera";"35.44";"667.458333333333";"368.65211832242"
"MediaDuracionCola";"33.2";"620.625";"326.687836207396"
"MediaDuracionTotal";"29.5";"820.833333333333";"512.981038923048"
